{
	"name": "Emotet Threat",
	"version": "2.2",
	"domain": "mitre-enterprise",
	"description": "Nounou Mbeiri investigation Emotet Threat",
	"filters": {
		"stages": [
			"act"
		],
		"platforms": [
			"Windows",
			"Linux",
			"macOS"
		]
	},
	"sorting": 0,
	"viewMode": 0,
	"hideDisabled": false,
	"techniques": [
		{
			"techniqueID": "T1110",
			"tactic": "credential-access",
			"score": 1,
			"color": "#74c476",
			"comment": "Emotet has been observed using a hard coded list of passwords to brute force user accounts.\n\nhttps://www.secureworks.com/blog/lazy-passwords-become-rocket-fuel-for-emotet-smb-spreader",
			"enabled": true,
			"metadata": []
		},
		{
			"techniqueID": "T1059",
			"tactic": "execution",
			"score": 1,
			"color": "#74c476",
			"comment": "Emotet has used cmd.exe to run a PowerShell script.\nhttps://www.picussecurity.com/blog/the-christmas-card-you-never-wanted-a-new-wave-of-emotet-is-back-to-wreak-havoc",
			"enabled": true,
			"metadata": []
		},
		{
			"techniqueID": "T1043",
			"tactic": "command-and-control",
			"score": 1,
			"color": "#74c476",
			"comment": "Emotet has used ports 20, 22, 80, 443, 8080, and 8443\n\nhttps://documents.trendmicro.com/assets/white_papers/ExploringEmotetsActivities_Final.pdf\n\nhttps://news.sophos.com/en-us/2019/03/05/emotet-101-stage-4-command-and-control/",
			"enabled": true,
			"metadata": []
		},
		{
			"techniqueID": "T1003",
			"tactic": "credential-access",
			"score": 1,
			"color": "#74c476",
			"comment": "Emotet has been observed dropping browser and password grabber modules including Mimikatz.\n\nThe malware has been observed to drop browser and email password grabber modules to steal users’ credentials and has also used hacking tools, i.e., Mimikatz, to recover stored passwords.\n\nhttps://documents.trendmicro.com/assets/white_papers/ExploringEmotetsActivities_Final.pdf",
			"enabled": true,
			"metadata": []
		},
		{
			"techniqueID": "T1081",
			"tactic": "credential-access",
			"score": 1,
			"color": "#74c476",
			"comment": "Emotet has been observed leveraging a module that retrieves passwords stored on a system for the current logged-on user\n-\nNetPass.exe is a legitimate utility developed by NirSoft that recovers all network passwords stored on a system for the current logged-on user. This tool can also recover passwords stored in the credentials file of external drives.\n\nhttps://www.us-cert.gov/ncas/alerts/TA18-201A",
			"enabled": true,
			"metadata": []
		},
		{
			"techniqueID": "T1094",
			"tactic": "command-and-control",
			"score": 1,
			"color": "#74c476",
			"comment": "Emotet has been observed using an encrypted, modified protobuf-based protocol for command and control messaging\n\nhttps://news.sophos.com/en-us/2019/03/05/emotet-101-stage-4-command-and-control/",
			"enabled": true,
			"metadata": []
		},
		{
			"techniqueID": "T1022",
			"tactic": "exfiltration",
			"score": 1,
			"color": "#74c476",
			"comment": "Emotet has been observed encrypting the data it collects before sending it to the C2 server.",
			"enabled": true,
			"metadata": []
		},
		{
			"techniqueID": "T1114",
			"tactic": "collection",
			"score": 1,
			"color": "#74c476",
			"comment": "Emotet has been observed leveraging a module that scrapes email data from Outlook\n\nhttps://www.cisecurity.org/white-papers/ms-isac-security-primer-emotet/",
			"enabled": true,
			"metadata": []
		},
		{
			"techniqueID": "T1041",
			"tactic": "exfiltration",
			"score": 1,
			"color": "#74c476",
			"comment": "Emotet has been seen exfiltrating system information stored within cookies sent within an HTTP GET request back to its C2 servers.",
			"enabled": true,
			"metadata": []
		},
		{
			"techniqueID": "T1210",
			"tactic": "lateral-movement",
			"score": 1,
			"color": "#74c476",
			"comment": "Emotet has been seen exploiting SMB via a vulnerability exploit like ETERNALBLUE (MS17-010) to achieve lateral movement and propagation\n\nhttps://www.us-cert.gov/ncas/alerts/TA18-201A",
			"enabled": true,
			"metadata": []
		},
		{
			"techniqueID": "T1040",
			"tactic": "credential-access",
			"score": 1,
			"color": "#74c476",
			"comment": "Emotet has been observed to hook network APIs to monitor network traffic\n\n-\nEMOTET can even “sniff” out data sent over secured connections through its capability to hook to the following Network APIs to monitor network traffic:\n\nPR_OpenTcpSocket\nPR_Write\nPR_Close\nPR_GetNameForIndentity\nClosesocket\nConnect\nSend\nWsaSend\n\nhttps://blog.trendmicro.com/trendlabs-security-intelligence/new-banking-malware-uses-network-sniffing-for-data-theft/",
			"enabled": true,
			"metadata": []
		},
		{
			"techniqueID": "T1040",
			"tactic": "discovery",
			"score": 1,
			"color": "#74c476",
			"comment": "Emotet has been observed to hook network APIs to monitor network traffic",
			"enabled": true,
			"metadata": []
		},
		{
			"techniqueID": "T1050",
			"tactic": "persistence",
			"score": 1,
			"color": "#74c476",
			"comment": "Emotet has been observed creating new services to maintain persistence.\n\nhttps://www.us-cert.gov/ncas/alerts/TA18-201A",
			"enabled": true,
			"metadata": []
		},
		{
			"techniqueID": "T1027",
			"tactic": "defense-evasion",
			"score": 1,
			"color": "#74c476",
			"comment": "Emotet has obfuscated macros within malicious documents to hide the URLs hosting the malware, CMD.exe arguments, and PowerShell scripts.\n\nhttps://documents.trendmicro.com/assets/white_papers/ExploringEmotetsActivities_Final.pdf",
			"enabled": true,
			"metadata": []
		},
		{
			"techniqueID": "T1086",
			"tactic": "execution",
			"score": 1,
			"color": "#74c476",
			"comment": "Emotet has used Powershell to retrieve the malicious payload and download additional resources like Mimikatz.\nhttps://symantec-enterprise-blogs.security.com/blogs/threat-intelligence/evolution-emotet-trojan-distributor",
			"enabled": true,
			"metadata": []
		},
		{
			"techniqueID": "T1057",
			"tactic": "discovery",
			"score": 1,
			"color": "#74c476",
			"comment": "Emotet has been observed enumerating local processes\n\n1.Service registry\nThe Emotet loader calls the OpenSCManagerW API to check administrative privileges for installing and enumerating services. If the loader successfully obtains admin privilege, a routine for registering the Emotet loader as a service is executed, and a copy is dropped into the path %Windir%\\System32.\n\nhttps://global.ahnlab.com/global/upload/download/asecreport/ASEC%20REPORT_vol.88_ENG.pdf",
			"enabled": true,
			"metadata": []
		},
		{
			"techniqueID": "T1055",
			"tactic": "defense-evasion",
			"score": 1,
			"color": "#74c476",
			"comment": "Emotet has been observed injecting in to Explorer.exe and other processes",
			"enabled": true,
			"metadata": []
		},
		{
			"techniqueID": "T1060",
			"tactic": "persistence",
			"score": 1,
			"color": "#74c476",
			"comment": "Emotet has been observed adding the downloaded payload to the HKEY_CURRENT_USER\\Software\\Microsoft\\Windows\\CurrentVersion\\Run key to maintain persistence.\n\nhttps://www.us-cert.gov/ncas/alerts/TA18-201A",
			"enabled": true,
			"metadata": []
		},
		{
			"techniqueID": "T1053",
			"tactic": "execution",
			"score": 1,
			"color": "#74c476",
			"comment": "Emotet has maintained persistence through a scheduled task.\nhttps://www.us-cert.gov/ncas/alerts/TA18-201A",
			"enabled": true,
			"metadata": []
		},
		{
			"techniqueID": "T1053",
			"tactic": "persistence",
			"score": 1,
			"color": "#74c476",
			"comment": "Emotet has maintained persistence through a scheduled task.\n\nhttps://www.us-cert.gov/ncas/alerts/TA18-201A",
			"enabled": true,
			"metadata": []
		},
		{
			"techniqueID": "T1064",
			"tactic": "defense-evasion",
			"score": 1,
			"color": "#74c476",
			"comment": "Emotet has sent Microsoft Word documents with embedded macros that will invoke scripts to download additional payloads\n\nhttps://documents.trendmicro.com/assets/white_papers/ExploringEmotetsActivities_Final.pdf",
			"enabled": true,
			"metadata": []
		},
		{
			"techniqueID": "T1064",
			"tactic": "execution",
			"score": 1,
			"color": "#74c476",
			"comment": "Emotet has sent Microsoft Word documents with embedded macros that will invoke scripts to download additional payloads\nhttps://blog.talosintelligence.com/2019/01/return-of-emotet.html",
			"enabled": true,
			"metadata": []
		},
		{
			"techniqueID": "T1045",
			"tactic": "defense-evasion",
			"score": 1,
			"color": "#74c476",
			"comment": "Emotet has used custom packers to protect its payloads.\n\nhttps://symantec-enterprise-blogs.security.com/blogs/threat-intelligence/evolution-emotet-trojan-distributor?es_p=7177774",
			"enabled": true,
			"metadata": []
		},
		{
			"techniqueID": "T1193",
			"tactic": "initial-access",
			"score": 1,
			"color": "#74c476",
			"comment": "Emotet has been delivered by phishing emails containing attachments.\nhttps://securelist.com/the-banking-trojan-emotet-detailed-analysis/69560/",
			"enabled": true,
			"metadata": []
		},
		{
			"techniqueID": "T1192",
			"tactic": "initial-access",
			"score": 1,
			"color": "#74c476",
			"comment": "Emotet has been delivered by phishing emails containing links.\nhttps://securelist.com/the-banking-trojan-emotet-detailed-analysis/69560/",
			"enabled": true,
			"metadata": []
		},
		{
			"techniqueID": "T1032",
			"tactic": "command-and-control",
			"score": 1,
			"color": "#74c476",
			"comment": "Emotet is known to use RSA keys for encrypting C2 traffic.\n\nhttps://documents.trendmicro.com/assets/white_papers/ExploringEmotetsActivities_Final.pdf",
			"enabled": true,
			"metadata": []
		},
		{
			"techniqueID": "T1065",
			"tactic": "command-and-control",
			"score": 1,
			"color": "#74c476",
			"comment": "Emotet has been observed communicating over non standard ports, including 7080 and 50000.\n\nhttps://news.sophos.com/en-us/2019/03/05/emotet-101-stage-4-command-and-control/",
			"enabled": true,
			"metadata": []
		},
		{
			"techniqueID": "T1204",
			"tactic": "execution",
			"score": 1,
			"color": "#74c476",
			"comment": "Emotet has relied upon users clicking on a malicious link or attachment delivered through spearphishing.\n\nhttps://www.carbonblack.com/2019/04/24/cb-tau-threat-intelligence-notification-emotet-utilizing-wmi-to-launch-powershell-encoded-code/",
			"enabled": true,
			"metadata": []
		},
		{
			"techniqueID": "T1078",
			"tactic": "privilege-escalation",
			"score": 1,
			"color": "#74c476",
			"comment": "Emotet can brute force a local admin password, then use it to facilitate lateral movement.\n\nhttps://support.malwarebytes.com/hc/en-us/articles/360038524714",
			"enabled": true,
			"metadata": []
		},
		{
			"techniqueID": "T1077",
			"tactic": "lateral-movement",
			"score": 1,
			"color": "#74c476",
			"comment": "Emotet leverages the Admin$ share for lateral movement once the local admin password has been brute forced.\n\nhttps://support.malwarebytes.com/hc/en-us/articles/360038524714",
			"enabled": true,
			"metadata": []
		},
		{
			"techniqueID": "T1047",
			"tactic": "execution",
			"score": 1,
			"color": "#74c476",
			"comment": "Emotet has used WMI to execute powershell.exe.\n\nhttps://www.carbonblack.com/2019/04/24/cb-tau-threat-intelligence-notification-emotet-utilizing-wmi-to-launch-powershell-encoded-code/",
			"enabled": true,
			"metadata": []
		},
		{
			"techniqueID": "T1010",
			"tactic": "discovery",
			"score": 1,
			"color": "#6baed6",
			"comment": "https://www.picussecurity.com/blog/the-christmas-card-you-never-wanted-a-new-wave-of-emotet-is-back-to-wreak-havoc",
			"enabled": true,
			"metadata": []
		},
		{
			"techniqueID": "T1036",
			"tactic": "defense-evasion",
			"score": 1,
			"color": "#6baed6",
			"comment": "https://www.fortinet.com/blog/threat-research/emotet-playbook-banking-trojan.html\n\nFor example, a Windows screensaver file named March 25 \\u202Excod.scr will display as March 25 rcs.docx. A JavaScript file named photo_high_re\\u202Egnp.js will be displayed as photo_high_resj.png. A common use of this technique is with spearphishing attachments since it can trick both end users and defenders if they are not aware of how their tools display and render the RTLO character.",
			"enabled": true,
			"metadata": []
		},
		{
			"techniqueID": "T1112",
			"tactic": "defense-evasion",
			"score": 1,
			"color": "#6baed6",
			"comment": "https://www.picussecurity.com/blog/the-christmas-card-you-never-wanted-a-new-wave-of-emotet-is-back-to-wreak-havoc",
			"enabled": true,
			"metadata": []
		},
		{
			"techniqueID": "T1137",
			"tactic": "persistence",
			"score": 1,
			"color": "#6baed6",
			"comment": "https://www.picussecurity.com/blog/the-christmas-card-you-never-wanted-a-new-wave-of-emotet-is-back-to-wreak-havoc",
			"enabled": true,
			"metadata": []
		},
		{
			"techniqueID": "T1055",
			"tactic": "privilege-escalation",
			"score": 1,
			"color": "#74c476",
			"comment": "Emotet has been observed injecting in to Explorer.exe and other processes.\n\nhttps://blog.trendmicro.com/trendlabs-security-intelligence/new-banking-malware-uses-network-sniffing-for-data-theft/\n\nhttps://securelist.com/the-banking-trojan-emotet-detailed-analysis/69560/",
			"enabled": true,
			"metadata": []
		},
		{
			"techniqueID": "T1012",
			"tactic": "discovery",
			"score": 1,
			"color": "#6baed6",
			"comment": "https://www.picussecurity.com/blog/the-christmas-card-you-never-wanted-a-new-wave-of-emotet-is-back-to-wreak-havoc",
			"enabled": true,
			"metadata": []
		},
		{
			"techniqueID": "T1035",
			"tactic": "execution",
			"score": 1,
			"color": "#6baed6",
			"comment": "https://www.youtube.com/watch?v=u4v5vbWh4s0\nAdversaries may execute a binary, command, or script via a method that interacts with Windows services, such as the Service Control Manager. This can be done by either creating a new service or modifying an existing service. This technique is the execution used in conjunction with New Service and Modify Existing Service during service persistence or privilege escalation.",
			"enabled": true,
			"metadata": []
		},
		{
			"techniqueID": "T1082",
			"tactic": "discovery",
			"score": 1,
			"color": "#6baed6",
			"comment": "https://news.sophos.com/en-us/2019/03/05/emotet-101-stage-4-command-and-control/\n\nhttps://www.picussecurity.com/blog/the-christmas-card-you-never-wanted-a-new-wave-of-emotet-is-back-to-wreak-havoc",
			"enabled": true,
			"metadata": []
		},
		{
			"techniqueID": "T1497",
			"tactic": "defense-evasion",
			"score": 1,
			"color": "#6baed6",
			"comment": "Anti-analysis tactics have been present in Emotet since at least 2015 and, in 2018, Emotet’s payload consists of a packed file containing the main component and an anti-analysis module. The anti-analysis module performs multiple checks to ensure it is not being run on a malware research machine\nhttps://symantec-enterprise-blogs.security.com/blogs/threat-intelligence/evolution-emotet-trojan-distributor?es_p=7177774",
			"enabled": true,
			"metadata": []
		},
		{
			"techniqueID": "T1497",
			"tactic": "discovery",
			"score": 1,
			"color": "#6baed6",
			"comment": "Anti-analysis tactics have been present in Emotet since at least 2015 and, in 2018, Emotet’s payload consists of a packed file containing the main component and an anti-analysis module. The anti-analysis module performs multiple checks to ensure it is not being run on a malware research machine\n\nhttps://symantec-enterprise-blogs.security.com/blogs/threat-intelligence/evolution-emotet-trojan-distributor",
			"enabled": true,
			"metadata": []
		}
	],
	"gradient": {
		"colors": [
			"#ff6666",
			"#ffe766",
			"#8ec843"
		],
		"minValue": 0,
		"maxValue": 100
	},
	"legendItems": [],
	"metadata": [],
	"showTacticRowBackground": false,
	"tacticRowBackground": "#dddddd",
	"selectTechniquesAcrossTactics": false
}
